{
    "extends": ["tslint:recommended", "tslint-react", "tslint-config-prettier"],
    "rulesDirectory": ["tslint-plugin-prettier"],
    "rules": {
        "prettier": true,
        "no-var-requires": false,
        "object-literal-sort-keys": false,
        "interface-name": false,
        "no-empty-interface": false,
        "no-console": false
    }
}
