{
    "extends": [
        "tslint:recommended",
        "tslint-config-prettier"
    ],
    "rulesDirectory": [
        "tslint-plugin-prettier"
    ],
    "rules": {
        "prettier": true,
        "no-var-requires": false,
        "object-literal-sort-keys": false,
        "interface-name": false,
        "no-console": false,
        "no-unused-expression": false,
        "no-empty": false
    }
}
